Chapter notes
…
22.529 sec elapsed

prior_pred

# A tibble: 361,000 × 3
   trialn rt_pred  iter
    <dbl>   <dbl> <dbl>
 1      1  25994.     1
 2      2  26023.     1
 3      3  25844.     1
 4      4  25733.     1
 5      5  25895.     1
 6      6  25843.     1
 7      7  25943.     1
 8      8  26099.     1
 9      9  26201.     1
10     10  25676.     1
# … with 360,990 more rows
…
as with the prior predictive distribution, the integration can be carried out computationally by generating samples from the posterior predictive distribution

we can use the same function normal_predictive_distribution() as created above; the only difference is that the samples come from the posterior, not from mu and sigma

N_obs <- nrow(df_spacebar)
mu_samples <- as_draws_df(fit_press)$b_Intercept
sigma_samples <- as_draws_df(fit_press)$sigma
normal_predictive_distribution(
  mu_samples = mu_samples,
  sigma_samples = sigma_samples,
  N_obs = N_obs
)

# A tibble: 1,444,000 × 3
   trialn rt_pred  iter
    <dbl>   <dbl> <dbl>
 1      1    149.     1
 2      2    129.     1
 3      3    141.     1
 4      4    168.     1
 5      5    142.     1
 6      6    150.     1
 7      7    195.     1
 8      8    149.     1
 9      9    137.     1
10     10    177.     1
# … with 1,443,990 more rows
…
Sidebar: Truncated distributions

looks intense

4.1.2 The brms model

before fittings the brms model, load the data and center the predictor

data("df_pupil")
(df_pupil <- df_pupil %>%
    mutate(c_load = load - mean(load)) # centre
  )

# A tibble: 41 × 5
    subj trial  load p_size c_load
   <int> <int> <int>  <dbl>  <dbl>
 1   701     1     2  1021. -0.439
 2   701     2     1   951. -1.44 
 3   701     3     5  1064.  2.56 
 4   701     4     4   913.  1.56 
 5   701     5     0   603. -2.44 
 6   701     6     3   826.  0.561
 7   701     7     0   464. -2.44 
 8   701     8     4   758.  1.56 
 9   701     9     2   733. -0.439
10   701    10     3   591.  0.561
# … with 31 more rows
…
